%YAML 1.1
%TAG !u! tag:unity3d.com,2011:
--- !u!114 &11400000
MonoBehaviour:
  m_ObjectHideFlags: 0
  m_CorrespondingSourceObject: {fileID: 0}
  m_PrefabInstance: {fileID: 0}
  m_PrefabAsset: {fileID: 0}
  m_GameObject: {fileID: 0}
  m_Enabled: 1
  m_EditorHideFlags: 0
  m_Script: {fileID: 11500000, guid: 0b178d3d35124b4b9e2a4fb2808f3560, type: 3}
  m_Name: BasicGameMode
  m_EditorClassIdentifier: 
  playerStartName: defaultStart
  characterPrefab: {fileID: 8363191851383643400, guid: 04f6b3ef453804b48bfe62ee401f3d5f, type: 3}
  controllerPrefab: {fileID: 7872148940019485578, guid: 4dcf2c7da6eee9d43a5bc5c656c0263b, type: 3}
